<?xml version="1.0" encoding="UTF-8" standalone="no"?>
<!DOCTYPE svg PUBLIC "-//W3C//DTD SVG 1.1//EN" "http://www.w3.org/Graphics/SVG/1.1/DTD/svg11.dtd">
<svg width="98px" height="93px" version="1.1" xmlns="http://www.w3.org/2000/svg" xmlns:xlink="http://www.w3.org/1999/xlink" xml:space="preserve" xmlns:serif="http://www.serif.com/" style="fill-rule:evenodd;clip-rule:evenodd;stroke-linecap:round;stroke-linejoin:round;stroke-miterlimit:1.5;">
    <g transform="matrix(1,0,0,1,-1.17651,-2.98527)">
        <g transform="matrix(0.181717,0,0,0.181717,-52.0573,-55.4104)">
            <path d="M560.928,327.98L646.855,484.514L822.281,517.864L699.96,647.957L722.453,825.103L560.928,748.971L399.402,825.103L421.895,647.957L299.574,517.864L475.001,484.514L560.928,327.98Z" style="fill:rgb(220,144,65);stroke:black;stroke-width:13.25px;"/>
        </g>
    </g>
</svg>
